Introduction to `nsink` • nsink
…
The first step in the N-Sink process is to acquire data needed for
the analysis. The nsink package utilizes openly available
data from several U.S. Federal Government sources. Each dataset uses a
12-digit HUC ID number to select the data for download. The first step
is to identify the HUC ID and then download the data.

To identify the HUC ID you can use the
nsink_get_huc_id() function which will use a 12-digit HUC
name to search all HUCs. Matches are returned as a data frame with an
option to return partial or exact matches.

# Get HUC ID - Palmer showing multiple matches
nsink_get_huc_id("Palmer")

#> # A tibble: 22 × 3
#>    huc_12       huc_12_name                  state
#>    <chr>        <chr>                        <chr>
#>  1 041503050403 Palmer Brook-Raquettte River NY   
#>  2 102100090205 City of Palmer-Loup River    NE   
#>  3 103001011203 Upper Palmer Creek           MO   
#>  4 103001011204 Palmer Creek-Missouri River  MO   
#>  5 101402010405 Palmer Creek-Lone Tree Creek NE   
#>  6 171003090201 Palmer Creek-Applegate River OR   
#>  7 170900080702 Palmer Creek                 OR   
#>  8 170200070402 Palmer Lake                  WA   
#>  9 111401010805 Palmer Lake-Red River        OK,TX
#> 10 071200061003 Palmer Creek-Fox River       WI   
#> # ℹ 12 more rows
…
With a flowpath generated we can summarize the relative nitrogen
removal along that flowpath with the
nsink_summarize_flowpath() function. It takes the flowpath
and removal as input. A data frame is returned with each segment
identified by type, the percent removal associated with that segment,
and relative removal. Total relative removal is 100 - minimum of the
n_out column.

niantic_fp_removal <- nsink_summarize_flowpath(niantic_fp, niantic_removal)
niantic_fp_removal
100-min(niantic_fp_removal$n_out)

#> # A tibble: 26 × 5
#>    segment_type length_meters percent_removal  n_in n_out
#>    <chr>                <dbl>           <dbl> <dbl> <dbl>
#>  1 Hydric                 235           2.74  100    97.3
#>  2 No Removal            1355           0      97.3  97.3
#>  3 Lake/Pond               78          54.8    97.3  43.9
#>  4 Stream                 130           0.014  43.9  43.9
#>  5 Lake/Pond              307          18.8    43.9  35.7
#>  6 Stream                1241           0.051  35.7  35.6
#>  7 Lake/Pond              317           6.71   35.6  33.3
#>  8 Stream                  71           0.003  33.3  33.3
#>  9 Lake/Pond              558          34.1    33.3  21.9
#> 10 Stream                1212           0.039  21.9  21.9
#> # ℹ 16 more rows
…
